\relax 
\providecommand\hyper@newdestlabel[2]{}
\providecommand\HyperFirstAtBeginDocument{\AtBeginDocument}
\HyperFirstAtBeginDocument{\ifx\hyper@anchor\@undefined
\global\let\oldcontentsline\contentsline
\gdef\contentsline#1#2#3#4{\oldcontentsline{#1}{#2}{#3}}
\global\let\oldnewlabel\newlabel
\gdef\newlabel#1#2{\newlabelxx{#1}#2}
\gdef\newlabelxx#1#2#3#4#5#6{\oldnewlabel{#1}{{#2}{#3}}}
\AtEndDocument{\ifx\hyper@anchor\@undefined
\let\contentsline\oldcontentsline
\let\newlabel\oldnewlabel
\fi}
\fi}
\global\let\hyper@last\relax 
\gdef\HyperFirstAtBeginDocument#1{#1}
\providecommand\HyField@AuxAddToFields[1]{}
\providecommand\HyField@AuxAddToCoFields[2]{}
\bibstyle{apalike}
\newlabel{sec:8-4}{{}{1}{Problem 8-4}{section*.1}{}}
\newlabel{4obj_1}{{1}{1}{Problem 8-4}{equation.0.1}{}}
\newlabel{4obj_2}{{2}{1}{Problem 8-4}{equation.0.2}{}}
\newlabel{4const_1}{{3}{1}{Problem 8-4}{equation.0.3}{}}
\newlabel{4const_2}{{4}{1}{Problem 8-4}{equation.0.4}{}}
\newlabel{subsec:8-4(a)}{{}{1}{8-4(a)}{section*.2}{}}
\newlabel{subsec:8-4(b)}{{}{1}{8-4(b)}{section*.3}{}}
\@writefile{lot}{\contentsline {table}{\numberline {1}{\ignorespaces Table of Optimized Objective Function Values and Decision Variables}}{2}{table.1}\protected@file@percent }
\@writefile{lof}{\contentsline {figure}{\numberline {1}{\ignorespaces Efficiency Frontier for Problem 8-4(b).}}{3}{figure.1}\protected@file@percent }
\newlabel{8-4bLingo}{{}{3}{8-4(b)}{figure.1}{}}
\@writefile{lof}{\contentsline {figure}{\numberline {2}{\ignorespaces Lingo code used to optimize Problem 8-4(b).}}{3}{figure.2}\protected@file@percent }
\newlabel{subsec:8-4(c)}{{}{4}{8-4(c)}{section*.4}{}}
\@writefile{lot}{\contentsline {table}{\numberline {2}{\ignorespaces Table of Objective Functions Solved Separately}}{4}{table.2}\protected@file@percent }
\newlabel{sec:8-5}{{}{5}{Problem 8-5}{section*.5}{}}
\newlabel{5obj_1}{{5}{5}{Problem 8-5}{equation.0.5}{}}
\newlabel{5obj_2}{{6}{5}{Problem 8-5}{equation.0.6}{}}
\newlabel{5const_1}{{7}{5}{Problem 8-5}{equation.0.7}{}}
\newlabel{5const_2}{{8}{5}{Problem 8-5}{equation.0.8}{}}
\newlabel{5const_3}{{9}{5}{Problem 8-5}{equation.0.9}{}}
\newlabel{5const_4}{{10}{5}{Problem 8-5}{equation.0.10}{}}
\newlabel{subsec:8-5(a)}{{}{5}{8-5(a)}{section*.6}{}}
\@writefile{lof}{\contentsline {figure}{\numberline {3}{\ignorespaces Graphical solution for Problem 8-5(a).}}{5}{figure.3}\protected@file@percent }
\newlabel{subsec:8-5(b)}{{}{6}{8-5(b)}{section*.7}{}}
\@writefile{lot}{\contentsline {table}{\numberline {3}{\ignorespaces Classification of Named Problem Points for Efficiency}}{6}{table.3}\protected@file@percent }
\newlabel{subsec:8-5(c)}{{}{6}{8-5(c)}{section*.8}{}}
\@writefile{lof}{\contentsline {figure}{\numberline {4}{\ignorespaces Efficiency Frontier for Problem 8-5(c)}}{6}{figure.4}\protected@file@percent }
\newlabel{sec:8-23}{{}{7}{Problem 8-23}{section*.9}{}}
\newlabel{subsec:8-23(a)}{{}{7}{8-23(a)}{section*.10}{}}
\newlabel{cit_obj}{{11}{7}{8-23(a)}{equation.0.11}{}}
\newlabel{useful_obj}{{12}{7}{8-23(a)}{equation.0.12}{}}
\newlabel{avail_obj}{{13}{7}{8-23(a)}{equation.0.13}{}}
\newlabel{sub_const}{{14}{7}{8-23(a)}{equation.0.14}{}}
\newlabel{23pos}{{15}{7}{8-23(a)}{equation.0.15}{}}
\newlabel{23int}{{16}{7}{8-23(a)}{equation.0.16}{}}
\newlabel{subsec:8-23(b)}{{}{8}{8-23(b)}{section*.11}{}}
\newlabel{23goal_obj}{{17}{8}{8-23(b)}{equation.0.17}{}}
\newlabel{23goal1}{{18}{8}{8-23(b)}{equation.0.18}{}}
\newlabel{23goal2}{{19}{8}{8-23(b)}{equation.0.19}{}}
\newlabel{23goal3}{{20}{8}{8-23(b)}{equation.0.20}{}}
\newlabel{sub_const_b}{{21}{8}{8-23(b)}{equation.0.21}{}}
\newlabel{23pos_b}{{22}{8}{8-23(b)}{equation.0.22}{}}
\newlabel{23int_b}{{23}{8}{8-23(b)}{equation.0.23}{}}
\newlabel{sec:8-32}{{}{9}{Problem 8-32}{section*.12}{}}
\newlabel{subsec:8-32(a)}{{}{9}{8-32(a)}{section*.13}{}}
\newlabel{32obj_1}{{24}{9}{8-32(a)}{equation.0.24}{}}
\newlabel{32obj_2}{{25}{9}{8-32(a)}{equation.0.25}{}}
\newlabel{32obj_3}{{26}{9}{8-32(a)}{equation.0.26}{}}
\newlabel{32obj_4}{{27}{9}{8-32(a)}{equation.0.27}{}}
\newlabel{32obj_5}{{28}{9}{8-32(a)}{equation.0.28}{}}
\newlabel{32obj_6}{{29}{9}{8-32(a)}{equation.0.29}{}}
\newlabel{32const_1}{{30}{9}{8-32(a)}{equation.0.30}{}}
\newlabel{32const_2}{{31}{9}{8-32(a)}{equation.0.31}{}}
\newlabel{32const_3}{{32}{9}{8-32(a)}{equation.0.32}{}}
\newlabel{32const_pos}{{33}{9}{8-32(a)}{equation.0.33}{}}
\newlabel{subsec:8-32(b)}{{}{10}{8-32(b)}{section*.14}{}}
\newlabel{32obj_goal}{{34}{10}{8-32(b)}{equation.0.34}{}}
\newlabel{32obj_1b}{{35}{10}{8-32(b)}{equation.0.35}{}}
\newlabel{32obj_2b}{{36}{10}{8-32(b)}{equation.0.36}{}}
\newlabel{32obj_3b}{{37}{10}{8-32(b)}{equation.0.37}{}}
\newlabel{32obj_4b}{{38}{10}{8-32(b)}{equation.0.38}{}}
\newlabel{32obj_5b}{{39}{10}{8-32(b)}{equation.0.39}{}}
\newlabel{32obj_6b}{{40}{10}{8-32(b)}{equation.0.40}{}}
\newlabel{32const_1b}{{41}{10}{8-32(b)}{equation.0.41}{}}
\newlabel{32const_2b}{{42}{10}{8-32(b)}{equation.0.42}{}}
\newlabel{32const_3b}{{43}{10}{8-32(b)}{equation.0.43}{}}
\newlabel{32const_posb}{{44}{10}{8-32(b)}{equation.0.44}{}}
\newlabel{32const_posb2}{{45}{10}{8-32(b)}{equation.0.45}{}}
\newlabel{subsec:8-32(c)}{{}{11}{8-32(c)}{section*.15}{}}
\newlabel{8-32Lingo}{{}{11}{8-32(c)}{section*.15}{}}
\@writefile{lof}{\contentsline {figure}{\numberline {5}{\ignorespaces Lingo code used to solve the formulation in \hyperref  [subsec:8-32(b)]{8-32(b).}}}{11}{figure.5}\protected@file@percent }
